Led Zeppelin,Pink Floyd
Led Zeppelin,The Beatles
Pearl Jam,Radiohead
Pearl Jam,Nirvana
30 Seconds to Mars,Muse
Kasabian,Muse
The Cure,Muse
The Cure,Radiohead
The Cure,The Smiths
Lily Allen,Lady Gaga
Oasis,Muse
Oasis,Arctic Monkeys
Oasis,The Killers
Oasis,Radiohead
Oasis,Nirvana
Oasis,Coldplay
Oasis,The Beatles
Ke$ha,Lady Gaga
The Kooks,Muse
The Kooks,Arctic Monkeys
Green Day,Muse
Britney Spears,Lady Gaga
Death Cab for Cutie,Muse
Death Cab for Cutie,Radiohead
Death Cab for Cutie,The Beatles
Lady Gaga,Muse
Lady Gaga,Rihanna
Lady Gaga,Paramore
Lady Gaga,Coldplay
Lady Gaga,The Beatles
Muse,The Strokes
Muse,Linkin Park
Muse,Red Hot Chili Peppers
Muse,Foo Fighters
Muse,Metallica
Muse,Snow Patrol
Muse,Arctic Monkeys
Muse,The Killers
Muse,Franz Ferdinand
Muse,Radiohead
Muse,Pink Floyd
Muse,Queen
Muse,Incubus
Muse,Placebo
Muse,System of a Down
Muse,Nirvana
Muse,Kings of Leon
Muse,MGMT
Muse,Paramore
Muse,Coldplay
Muse,The Beatles
The Strokes,Arctic Monkeys
The Strokes,The Killers
The Strokes,Radiohead
The Strokes,The Beatles
Red Hot Chili Peppers,Foo Fighters
Red Hot Chili Peppers,The Killers
Red Hot Chili Peppers,Radiohead
Red Hot Chili Peppers,Nirvana
Red Hot Chili Peppers,Coldplay
Red Hot Chili Peppers,The Beatles
Foo Fighters,Radiohead
Foo Fighters,Nirvana
Metallica,System of a Down
Metallica,Iron Maiden
Arctic Monkeys,The Killers
Arctic Monkeys,Franz Ferdinand
Arctic Monkeys,Radiohead
Arctic Monkeys,Placebo
Arctic Monkeys,Nirvana
Arctic Monkeys,Kings of Leon
Arctic Monkeys,MGMT
Arctic Monkeys,Coldplay
Arctic Monkeys,The Beatles
The Killers,Radiohead
The Killers,Placebo
The Killers,Kings of Leon
The Killers,Coldplay
The Killers,The Beatles
Franz Ferdinand,Radiohead
Franz Ferdinand,The Beatles
The Rolling Stones,The Beatles
Radiohead,David Bowie
Radiohead,Pink Floyd
Radiohead,Placebo
Radiohead,Nirvana
Radiohead,The Smiths
Radiohead,Kings of Leon
Radiohead,Coldplay
Radiohead,The Beatles
David Bowie,The Beatles
Pink Floyd,The Beatles
Queen,The Beatles
Placebo,Nirvana
Placebo,Coldplay
Nirvana,Coldplay
Nirvana,The Beatles
The Smiths,The Beatles
Kings of Leon,Coldplay
MGMT,The Beatles
Coldplay,The Beatles
